62171 497128
224973 307971
400197 586849
916488 803053
607145 489814
863593 746495
833601 197428
344564 681255
178739 836812
20173 892341
471124 859504
255035 137163
802446 420939
714503 129804
889916 612813
231621 454334
827022 675634
600585 698293
640324 339629
923432 593024
249063 161744
182062 344555
431835 749640
722550 575403
804561 317481
81824 755395
952377 908725
117175 170407
324187 312743
246447 622538
523884 916984
238473 934838
591587 950117
595104 668142
9633 573279
190313 46757
695885 476763
612957 157273
160097 424999
779456 266535
395021 613819
138960 926758
331430 668250
63718 85388
888604 259811
296062 125648
208316 655471
659888 361553
82160 320914
24529 217097
181154 712288
922132 76433
951963 712149
838532 390592
138978 608361
129135 379524
808538 375345
559581 231053
159124 917638
200966 507783
986184 129063
667292 623551
833292 728807
262472 437064
88603 942276
315728 32366
964856 478401
879006 368162
203713 248515
602898 986693
125903 475883
990016 177792
47539 391615
594424 850482
883252 319823
692488 355527
889376 925357
237824 435077
807590 655880
406943 409481
640948 850889
137859 369712
498666 437919
374678 327843
784971 42900
201359 325193
756482 156295
832494 514150
159799 896454
404581 674712
600965 57562
986124 635802
5077 659023
662257 299157
895506 642176
690364 465063
7009 260919
456829 723385
238146 30430
161287 222195
255143 908352
824000 528932
237351 37327
350272 425713
692136 116251
571707 847671
520881 223791
775101 164522
389730 407900
438692 126480
714542 620124
560797 253381
589860 301563
342070 901560
984189 1060
643406 157249
523467 799386
277155 460431
100802 575301
445106 630354
551901 244458
330147 970040
550044 907327
273591 501198
946762 328324
488619 275172
578959 316831
296675 698051
256280 439557
411763 490911
682959 796625
48327 271543
16742 241773
770765 915231
264997 424374
362056 695755
502508 984266
589910 842819
183508 392483
607886 39844
28933 675228
741903 545961
896857 9774
451490 315736
29857 587133
514420 211993
509589 437874
503027 708475
677021 786204
934472 562570
521619 441574
233533 904368
337328 568477
330918 734545
584287 66456
809549 549260
77978 353769
956898 254140
713825 500232
883899 86811
702368 150790
354513 43103
637755 486420
165765 637875
323164 883785
327228 71985
627315 807330
93476 404364
376842 211015
666843 895129
970660 105864
637852 410966
534624 535881
885304 803687
530732 976133
431041 8285
776347 838630
615174 798955
868845 636355
592330 135504
825214 255827
107334 521401
923093 1265
980673 468847
738661 582591
549592 897572
836236 39064
198537 30318
980058 715489
45813 824848
371488 928912
228406 738509
145146 775952
128011 631507
255877 818867
458989 512724
529465 456236
965101 320429
379891 216713
867910 369940
288333 893311
150348 579046
395891 881288
669511 646192
633145 957859
881932 674413
465087 440229
677620 787597
33401 729599
367247 455945
607697 388815
290953 12438
917921 767528
633235 747900
263380 448151
87698 990312
291111 952504
7525 645871
875940 573062
456121 900483
644408 426217
399974 678488
869658 144429
