68 21 113
86 26 116
30 92 116
11 49 112
98 71 119
28 53 110
71 77 116
89 16 116
67 3 113
33 94 116
55 90 116
98 36 119
88 17 116
75 81 36
41 82 116
54 56 113
52 50 25
14 93 116
86 11 116
38 61 113
38 65 113
39 99 119
88 84 31
89 19 116
83 26 116
16 92 116
82 24 116
79 20 116
18 62 113
965 202 179
247 61 128
522 625 137
286 921 179
638 695 145
379 740 171
994 481 179
864 794 148
341 638 142
230 558 144
778 807 122
572 689 145
852 520 171
99 985 179
857 932 179
542 576 137
887 257 179
354 248 144
452 269 144
273 20 128
572 834 171
499 920 179
552 723 171
520 301 144
731 869 153
283 386 144
147 178 125
130 529 144
151 300 128
769 492 171
501 376 142
5 436 144
666 454 145
452 624 142
687 160 145
293 832 171
185 758 171
977 603 179
27 554 144
421 385 134
952 930 174
267 97 128
903 596 179
244 235 128
706 944 179
900 574 179
455 191 144
990 50 179
970 686 179
720 619 171
285 502 144
448 527 142
664 387 145
942 213 179
589 400 142
683 291 145
843 146 171
10 659 145
17 961 179
547 16 144
344 948 179
65 40 113
94 135 122
553 654 145
825 979 179
793 877 179
661 692 145
541 41 144
603 642 132
601 333 142
790 423 171
915 183 179
813 639 171
357 384 108
127 535 144
529 281 144
875 881 148
663 717 171
260 478 144
36 947 179
236 551 144
520 188 144
781 711 153
944 126 179
931 722 179
362 868 171
637 265 144
643 308 144
817 29 171
1 54 113
206 530 144
899 383 179
126 172 125
404 801 171
853 124 171
41 685 145
888 653 179
349 547 142
411 691 145
125 12 119
184 814 171
172 607 144
394 88 144
107 946 179
522 755 171
892 641 179
434 56 144
791 604 171
485 862 171
4 504 144
968 93 179
696 592 145
642 944 179
405 290 144
578 277 144
509 231 144
342 245 144
566 700 145
351 140 144
207 941 179
850 588 171
373 218 144
439 357 134
117 301 128
31 275 128
357 875 179
763 761 153
387 655 145
738 865 153
483 615 142
258 414 144
945 297 179
820 325 171
625 344 142
496 83 144
157 533 144
15 180 125
60 110 119
820 699 171
294 521 144
25 229 125
157 800 171
918 789 179
600 820 171
970 431 179
635 882 179
56 361 144
565 667 145
765 580 171
873 594 179
310 211 128
4042 3865 189
2711 5167 238
5213 9240 262
8957 7418 252
220 7449 262
6608 5732 262
7324 6321 257
6770 6317 244
5399 6272 262
7245 4392 262
1695 1095 182
4383 2014 238
2060 8236 262
8199 9150 247
3380 7821 262
2981 4871 238
6448 4084 262
8981 1058 262
1000 3191 217
7975 4594 262
555 2888 209
9273 8174 260
9844 6871 260
7841 7520 221
485 8759 262
3484 362 217
5542 7730 262
3427 6588 262
27230 54698 340
73020 78510 351
87720 97351 333
19362 67889 340
91276 77522 338
65060 55990 335
27993 48532 324
28767 7657 308
88175 66642 351
11810 35549 311
57226 45656 340
53300 35962 340
91729 49796 351
81101 68293 351
15543 31508 308
46828 61774 340
31287 23880 308
25279 25440 246
103 31324 308
57405 23011 340
83877 82606 320
82877 23104 351
43340 73423 340
95514 42966 351
22666 90360 351
21789 19542 274
72678 19945 340
21970 7448 279
25085 72626 340
19730 34101 308
85924 16149 351
548158 918868 525
580630 834239 509
734452 315358 509
272631 707143 509
922365 277527 525
524378 300294 470
854212 683003 525
700763 230995 509
204283 446779 449
477189 337227 449
412648 955849 525
