323557 644890 509
438312 817927 509
31888 141302 354
852913 539636 525
473744 27920 449
855762 148052 525
406803 829420 509
318762 395176 441
789635 265726 509
580725 671543 509
861786 885952 432
80284 87872 333
456229 516478 470
804225 376648 509
201776 885051 525
310479 199266 443
484774 88353 449
881470 946584 507
599883 495103 470
264044 649113 509
914246 455021 525
385096 843541 525
302627 240167 407
547536 446050 470
17952 648403 509
456846 796528 509
580696 108524 470
775868 749208 468
167293 386341 443
92011 628898 509
62707 796008 509
5188 625794 470
841024 246601 525
236385 313552 407
444362 822940 509
771053 599262 509
262548 195765 443
554756 666880 509
653724 308234 509
694698 642357 442
842051 991555 507
811199 240974 509
176838 912223 525
995099 51507 525
483509 105193 449
797842 199751 509
357091 123786 443
35873 708272 509
681242 813175 504
687999 152897 509
127921 971997 525
806183 137995 509
874742 245964 525
793651 790931 437
758610 547255 509
858287 385810 525
569318 91204 470
360981 282071 441
530183 610111 452
52242 862712 525
485077 145235 449
475678 188778 449
502884 712266 509
115124 136250 349
925408 129333 525
140574 342320 443
619876 902984 525
854418 26620 525
168011 151342 383
375125 475539 449
444189 844575 525
628 938399 525
76756 709743 509
468177 217836 449
63979 611812 470
165853 317543 443
943006 14378 525
300762 230435 443
454324 224429 449
799508 237535 509
226963 756571 509
878940 199356 525
727265 490634 509
101117 764996 509
846764 967588 507
862993 554155 525
676813 928964 525
91474 406413 443
581854 596974 434
476909 513034 470
76149 589573 470
245063 819760 509
207089 438665 449
810966 741118 468
335652 813044 509
286101 602684 470
850648 514518 525
990673 307744 525
639610 599951 509
792312 200247 509
282821 574338 470
461680 307199 449
663106 215255 509
163543 555183 470
305176 803499 509
88961 169544 383
838986 774262 525
768364 118984 509
591629 418796 470
504731 861993 525
899827 321489 525
367525 317268 441
770739 395284 509
221762 679564 509
400536 484063 449
3063 32669 308
121363 336504 443
524884 586590 452
958377 147740 525
900493 676450 525
839071 530884 525
171752 917936 525
710167 485198 509
992228 92715 525
422705 6141 449
94961 923468 525
492318 128762 449
363391 959268 525
647770 95679 509
905574 759830 525
587916 505343 470
828161 26743 509
553974 211702 470
171303 832458 509
818277 921475 525
797309 524557 509
563309 361709 470
409525 713337 509
320710 896543 525
960046 915887 507
404308 552374 470
450512 677789 509
132013 530344 470
924157 8844 525
403091 750516 509
940944 273460 525
378125 551287 470
647007 505299 509
842999 964399 507
786881 630143 504
60582 543671 470
574922 674951 509
354225 121056 443
656283 239175 509
598457 653809 509
371435 226071 443
110138 735153 509
229353 447162 449
344880 481716 449
385780 527080 470
560051 682736 509
73103 641900 509
54208 681633 509
575427 50622 470
749405 906824 525
797562 952471 525
715065 942451 525
427236 387415 449
508922 766139 509
945689 617466 525
233317 796700 509
630595 503928 509
727604 571770 509
35800 714653 509
573748 959283 525
758755 466986 509
79139 735055 509
515123 436581 470
210918 227633 386
322615 239740 407
552075 424200 470
876328 209312 525
969355 80240 525
669899 584014 509
388024 382584 348
898798 193428 525
538960 60044 470
807283 314247 509
876556 441028 525
394150 839871 525
109673 23149 354
4751 439607 449
247305 638975 509
263533 399919 441
87679 574098 470
100069 33628 351
857127 105326 525
482781 498969 426
558720 594662 434
763258 336838 509
291779 744970 509
412411 146124 449
877365 829275 525
516758 36486 470
327734 225777 443
864228 945384 507
129242 512338 470
826792 961597 525
630740 190737 509
701692 558036 509
459273 982652 525
904018 411677 525
7007 637561 509
657245 256106 509
168357 474555 449
943206 590435 525
523319 568367 452
292587 647718 509
366082 927891 525
361676 478902 449
162187 479981 449
804636 844397 525
362791 929006 525
638500 651491 416
832946 933575 525
768947 448190 509
864197 861665 344
471623 127332 449
670955 429851 509
61228 575333 470
976425 200208 525
842886 57817 525
135037 875944 525
87527 77393 338
2828 499133 449
332248 971314 525
603075 972622 525
540026 322161 470
648078 773789 504
642342 603311 509
269280 699046 509
247232 400187 441
