978010 363469
889053 326880
344867 787185
850549 450406
799063 126504
274125 19266
675912 483435
108059 101929
2815 447450
759528 906433
139375 976301
302840 196419
987658 536247
444328 29197
978910 347568
325101 469398
90988 818112
484416 503867
997573 102860
302703 312663
820791 258146
655142 60771
721846 787194
201243 546064
314533 559178
970829 827585
641139 522515
410392 792422
426031 470922
816008 628638
93680 522622
65775 853915
435363 939062
174040 334653
366715 624399
939025 81969
679469 247574
646011 270374
300130 160967
598754 991556
427819 791689
727570 285587
413859 646072
556373 296896
794644 53934
777653 47622
963690 215659
329474 62208
17938 551112
875102 241558
215478 815257
230203 769147
593962 159289
207381 124909
642743 847436
781982 226917
718920 695708
889563 585258
703760 131076
588260 580726
450605 476877
611490 185186
255409 725578
247810 262560
164227 900289
73923 950542
348224 350823
250382 589377
198597 370956
708769 309829
632661 133256
299914 325711
56285 290195
236674 512613
651136 96429
784612 956186
459025 324107
371599 711431
558053 270637
164115 848355
64070 918401
581459 260189
115343 584024
169548 575046
403861 688223
913748 914665
296127 463053
676639 546475
216740 580467
559723 501265
402157 241762
442459 276007
313121 31617
736171 498986
656830 92558
11171 849809
929499 593473
968010 861603
837597 945572
695814 510166
137531 608900
180178 70177
209476 244969
147458 366432
41347 674261
424205 478568
510910 976101
607172 293496
176014 763911
657242 725088
426014 459632
172620 392527
683667 954543
128301 823792
564614 363209
787013 871908
204858 359863
750564 357033
438666 266437
179772 610058
325817 788612
28610 22875
388888 433122
624738 681009
977089 573708
503405 778301
705544 337099
441649 72599
492297 805434
507576 781230
158813 715407
202351 854641
44121 720374
676695 233837
376938 778460
209630 709719
326047 7431
709903 462771
555406 849386
910119 729753
317363 568786
139957 177570
462165 50038
19119 485418
134215 841581
260908 693260
46685 603440
728336 147292
674639 868255
129799 850788
400078 348706
459229 507527
574336 311911
94182 45291
112507 952299
428692 415204
918938 291369
826853 528832
175116 176707
268584 967149
218556 715372
261222 240718
812947 436330
467671 416744
12613 425552
306329 32029
637911 778498
422019 789087
399160 702668
210488 437455
963460 314687
699143 73635
652622 763052
248103 668947
508468 691541
586804 240878
731886 276208
774167 786737
317837 158117
603886 966619
169959 151147
368209 66220
699824 884479
800618 643529
275843 970631
494756 573610
154485 925220
471967 927532
34791 446625
814245 930978
292762 664787
103058 428960
839936 951565
592179 679829
998564 54883
468866 684850
246434 280123
228510 76598
716685 139040
348363 525867
255304 866159
488275 824097
594261 811537
396090 37784
136269 145879
356113 743047
95419 923805
274733 385293
311363 78831
76223 239227
510301 460019
398936 40635
694734 824866
316308 107500
253262 533671
222438 316466
651639 567762
411696 839440
859751 273540
635597 127021
777147 472345
577068 370330
848974 735823
730774 441414
66833 148672
568890 19758
